%YAML 1.1
%TAG !u! tag:unity3d.com,2011:
--- !u!29 &1
OcclusionCullingSettings:
  m_ObjectHideFlags: 0
  serializedVersion: 2
  m_OcclusionBakeSettings:
    smallestOccluder: 5
    smallestHole: 0.25
    backfaceThreshold: 100
  m_SceneGUID: 00000000000000000000000000000000
  m_OcclusionCullingData: {fileID: 0}
--- !u!104 &2
RenderSettings:
  m_ObjectHideFlags: 0
  serializedVersion: 9
  m_Fog: 0
  m_FogColor: {r: 0.5, g: 0.5, b: 0.5, a: 1}
  m_FogMode: 3
  m_FogDensity: 0.01
  m_LinearFogStart: 0
  m_LinearFogEnd: 300
  m_AmbientSkyColor: {r: 0.212, g: 0.227, b: 0.259, a: 1}
  m_AmbientEquatorColor: {r: 0.114, g: 0.125, b: 0.133, a: 1}
  m_AmbientGroundColor: {r: 0.047, g: 0.043, b: 0.035, a: 1}
  m_AmbientIntensity: 1
  m_AmbientMode: 0
  m_SubtractiveShadowColor: {r: 0.42, g: 0.478, b: 0.627, a: 1}
  m_SkyboxMaterial: {fileID: 10304, guid: 0000000000000000f000000000000000, type: 0}
  m_HaloStrength: 0.5
  m_FlareStrength: 1
  m_FlareFadeSpeed: 3
  m_HaloTexture: {fileID: 0}
  m_SpotCookie: {fileID: 10001, guid: 0000000000000000e000000000000000, type: 0}
  m_DefaultReflectionMode: 0
  m_DefaultReflectionResolution: 128
  m_ReflectionBounces: 1
  m_ReflectionIntensity: 1
  m_CustomReflection: {fileID: 0}
  m_Sun: {fileID: 0}
  m_IndirectSpecularColor: {r: 0.37311953, g: 0.38074014, b: 0.3587274, a: 1}
  m_UseRadianceAmbientProbe: 0
--- !u!157 &3
LightmapSettings:
  m_ObjectHideFlags: 0
  serializedVersion: 11
  m_GIWorkflowMode: 0
  m_GISettings:
    serializedVersion: 2
    m_BounceScale: 1
    m_IndirectOutputScale: 1
    m_AlbedoBoost: 1
    m_EnvironmentLightingMode: 0
    m_EnableBakedLightmaps: 1
    m_EnableRealtimeLightmaps: 1
  m_LightmapEditorSettings:
    serializedVersion: 12
    m_Resolution: 2
    m_BakeResolution: 40
    m_AtlasSize: 1024
    m_AO: 0
    m_AOMaxDistance: 1
    m_CompAOExponent: 1
    m_CompAOExponentDirect: 0
    m_ExtractAmbientOcclusion: 0
    m_Padding: 2
    m_LightmapParameters: {fileID: 0}
    m_LightmapsBakeMode: 1
    m_TextureCompression: 1
    m_FinalGather: 0
    m_FinalGatherFiltering: 1
    m_FinalGatherRayCount: 256
    m_ReflectionCompression: 2
    m_MixedBakeMode: 2
    m_BakeBackend: 0
    m_PVRSampling: 1
    m_PVRDirectSampleCount: 32
    m_PVRSampleCount: 500
    m_PVRBounces: 2
    m_PVREnvironmentSampleCount: 500
    m_PVREnvironmentReferencePointCount: 2048
    m_PVRFilteringMode: 2
    m_PVRDenoiserTypeDirect: 0
    m_PVRDenoiserTypeIndirect: 0
    m_PVRDenoiserTypeAO: 0
    m_PVRFilterTypeDirect: 0
    m_PVRFilterTypeIndirect: 0
    m_PVRFilterTypeAO: 0
    m_PVREnvironmentMIS: 0
    m_PVRCulling: 1
    m_PVRFilteringGaussRadiusDirect: 1
    m_PVRFilteringGaussRadiusIndirect: 5
    m_PVRFilteringGaussRadiusAO: 2
    m_PVRFilteringAtrousPositionSigmaDirect: 0.5
    m_PVRFilteringAtrousPositionSigmaIndirect: 2
    m_PVRFilteringAtrousPositionSigmaAO: 1
    m_ExportTrainingData: 0
    m_TrainingDataDestination: TrainingData
  m_LightingDataAsset: {fileID: 0}
  m_UseShadowmask: 1
--- !u!196 &4
NavMeshSettings:
  serializedVersion: 2
  m_ObjectHideFlags: 0
  m_BuildSettings:
    serializedVersion: 2
    agentTypeID: 0
    agentRadius: 0.5
    agentHeight: 2
    agentSlope: 45
    agentClimb: 0.4
    ledgeDropHeight: 0
    maxJumpAcrossDistance: 0
    minRegionArea: 2
    manualCellSize: 0
    cellSize: 0.16666667
    manualTileSize: 0
    tileSize: 256
    accuratePlacement: 0
    debug:
      m_Flags: 0
  m_NavMeshData: {fileID: 0}
--- !u!1001 &379026261
PrefabInstance:
  m_ObjectHideFlags: 0
  serializedVersion: 2
  m_Modification:
    m_TransformParent: {fileID: 0}
    m_Modifications:
    - target: {fileID: 400000, guid: 166439049626ad145a5873f24db80b17, type: 3}
      propertyPath: m_LocalPosition.x
      value: 0
      objectReference: {fileID: 0}
    - target: {fileID: 400000, guid: 166439049626ad145a5873f24db80b17, type: 3}
      propertyPath: m_LocalPosition.y
      value: 0
      objectReference: {fileID: 0}
    - target: {fileID: 400000, guid: 166439049626ad145a5873f24db80b17, type: 3}
      propertyPath: m_LocalPosition.z
      value: 0
      objectReference: {fileID: 0}
    - target: {fileID: 400000, guid: 166439049626ad145a5873f24db80b17, type: 3}
      propertyPath: m_LocalRotation.x
      value: -0.7071068
      objectReference: {fileID: 0}
    - target: {fileID: 400000, guid: 166439049626ad145a5873f24db80b17, type: 3}
      propertyPath: m_LocalRotation.y
      value: 0
      objectReference: {fileID: 0}
    - target: {fileID: 400000, guid: 166439049626ad145a5873f24db80b17, type: 3}
      propertyPath: m_LocalRotation.z
      value: -0
      objectReference: {fileID: 0}
    - target: {fileID: 400000, guid: 166439049626ad145a5873f24db80b17, type: 3}
      propertyPath: m_LocalRotation.w
      value: 0.7071068
      objectReference: {fileID: 0}
    - target: {fileID: 400000, guid: 166439049626ad145a5873f24db80b17, type: 3}
      propertyPath: m_RootOrder
      value: 0
      objectReference: {fileID: 0}
    m_RemovedComponents: []
  m_SourcePrefab: {fileID: 100100000, guid: 166439049626ad145a5873f24db80b17, type: 3}
--- !u!1 &452153869 stripped
GameObject:
  m_CorrespondingSourceObject: {fileID: 1054946105880540, guid: 9aed7a2f1133f1743a122a4b166373ff,
    type: 3}
  m_PrefabInstance: {fileID: 1650705493}
  m_PrefabAsset: {fileID: 0}
--- !u!4 &452153874 stripped
Transform:
  m_CorrespondingSourceObject: {fileID: 4829911300871516, guid: 9aed7a2f1133f1743a122a4b166373ff,
    type: 3}
  m_PrefabInstance: {fileID: 1650705493}
  m_PrefabAsset: {fileID: 0}
--- !u!1 &509582484
GameObject:
  m_ObjectHideFlags: 0
  m_CorrespondingSourceObject: {fileID: 0}
  m_PrefabInstance: {fileID: 0}
  m_PrefabAsset: {fileID: 0}
  serializedVersion: 6
  m_Component:
  - component: {fileID: 509582485}
  m_Layer: 0
  m_Name: GameObject
  m_TagString: Untagged
  m_Icon: {fileID: 0}
  m_NavMeshLayer: 0
  m_StaticEditorFlags: 0
  m_IsActive: 1
--- !u!4 &509582485
Transform:
  m_ObjectHideFlags: 0
  m_CorrespondingSourceObject: {fileID: 0}
  m_PrefabInstance: {fileID: 0}
  m_PrefabAsset: {fileID: 0}
  m_GameObject: {fileID: 509582484}
  m_LocalRotation: {x: 0, y: 0, z: 0, w: 1}
  m_LocalPosition: {x: -0.19555777, y: 2.02569, z: -0.09695399}
  m_LocalScale: {x: 1, y: 1, z: 1}
  m_Children: []
  m_Father: {fileID: 0}
  m_RootOrder: 2
  m_LocalEulerAnglesHint: {x: 0, y: 0, z: 0}
--- !u!4 &852713779 stripped
Transform:
  m_CorrespondingSourceObject: {fileID: 4266140017569550, guid: 267cd6dd2057b5d4981eead52aae47a3,
    type: 3}
  m_PrefabInstance: {fileID: 1521769227}
  m_PrefabAsset: {fileID: 0}
--- !u!1001 &1521769227
PrefabInstance:
  m_ObjectHideFlags: 0
  serializedVersion: 2
  m_Modification:
    m_TransformParent: {fileID: 452153874}
    m_Modifications:
    - target: {fileID: 4266140017569550, guid: 267cd6dd2057b5d4981eead52aae47a3, type: 3}
      propertyPath: m_LocalPosition.y
      value: 0.362
      objectReference: {fileID: 0}
    - target: {fileID: 4922118702031408, guid: 267cd6dd2057b5d4981eead52aae47a3, type: 3}
      propertyPath: m_LocalPosition.x
      value: -0.16242321
      objectReference: {fileID: 0}
    - target: {fileID: 4922118702031408, guid: 267cd6dd2057b5d4981eead52aae47a3, type: 3}
      propertyPath: m_LocalPosition.y
      value: 1.9444231
      objectReference: {fileID: 0}
    - target: {fileID: 4922118702031408, guid: 267cd6dd2057b5d4981eead52aae47a3, type: 3}
      propertyPath: m_LocalPosition.z
      value: 0
      objectReference: {fileID: 0}
    - target: {fileID: 4922118702031408, guid: 267cd6dd2057b5d4981eead52aae47a3, type: 3}
      propertyPath: m_LocalRotation.x
      value: 0
      objectReference: {fileID: 0}
    - target: {fileID: 4922118702031408, guid: 267cd6dd2057b5d4981eead52aae47a3, type: 3}
      propertyPath: m_LocalRotation.y
      value: 0
      objectReference: {fileID: 0}
    - target: {fileID: 4922118702031408, guid: 267cd6dd2057b5d4981eead52aae47a3, type: 3}
      propertyPath: m_LocalRotation.z
      value: 0
      objectReference: {fileID: 0}
    - target: {fileID: 4922118702031408, guid: 267cd6dd2057b5d4981eead52aae47a3, type: 3}
      propertyPath: m_LocalRotation.w
      value: 1
      objectReference: {fileID: 0}
    - target: {fileID: 4922118702031408, guid: 267cd6dd2057b5d4981eead52aae47a3, type: 3}
      propertyPath: m_RootOrder
      value: 0
      objectReference: {fileID: 0}
    - target: {fileID: 4922118702031408, guid: 267cd6dd2057b5d4981eead52aae47a3, type: 3}
      propertyPath: m_LocalEulerAnglesHint.z
      value: 0
      objectReference: {fileID: 0}
    - target: {fileID: 114813077582168402, guid: 267cd6dd2057b5d4981eead52aae47a3,
        type: 3}
      propertyPath: target
      value: 
      objectReference: {fileID: 452153869}
    - target: {fileID: 114813077582168402, guid: 267cd6dd2057b5d4981eead52aae47a3,
        type: 3}
      propertyPath: deviationStrength
      value: 0
      objectReference: {fileID: 0}
    - target: {fileID: 114813077582168402, guid: 267cd6dd2057b5d4981eead52aae47a3,
        type: 3}
      propertyPath: chaseObj
      value: 
      objectReference: {fileID: 509582485}
    - target: {fileID: 23874425396522190, guid: 267cd6dd2057b5d4981eead52aae47a3,
        type: 3}
      propertyPath: m_Materials.Array.data[0]
      value: 
      objectReference: {fileID: 2100000, guid: 80668de1eba3fae4086236e27b141d5d, type: 2}
    - target: {fileID: 23180680029715614, guid: 267cd6dd2057b5d4981eead52aae47a3,
        type: 3}
      propertyPath: m_Materials.Array.data[0]
      value: 
      objectReference: {fileID: 2100000, guid: 80668de1eba3fae4086236e27b141d5d, type: 2}
    - target: {fileID: 23470211330472794, guid: 267cd6dd2057b5d4981eead52aae47a3,
        type: 3}
      propertyPath: m_Materials.Array.data[0]
      value: 
      objectReference: {fileID: 2100000, guid: 6b2978801965a8d41a3af0d82f6ec384, type: 2}
    - target: {fileID: 23126940554806926, guid: 267cd6dd2057b5d4981eead52aae47a3,
        type: 3}
      propertyPath: m_Materials.Array.data[0]
      value: 
      objectReference: {fileID: 2100000, guid: 6b2978801965a8d41a3af0d82f6ec384, type: 2}
    - target: {fileID: 23375731112942906, guid: 267cd6dd2057b5d4981eead52aae47a3,
        type: 3}
      propertyPath: m_Materials.Array.data[0]
      value: 
      objectReference: {fileID: 2100000, guid: 80668de1eba3fae4086236e27b141d5d, type: 2}
    - target: {fileID: 4226902223329132, guid: 267cd6dd2057b5d4981eead52aae47a3, type: 3}
      propertyPath: m_LocalPosition.x
      value: 0.502
      objectReference: {fileID: 0}
    - target: {fileID: 4226902223329132, guid: 267cd6dd2057b5d4981eead52aae47a3, type: 3}
      propertyPath: m_LocalPosition.z
      value: -0.533
      objectReference: {fileID: 0}
    - target: {fileID: 4636420904204468, guid: 267cd6dd2057b5d4981eead52aae47a3, type: 3}
      propertyPath: m_LocalPosition.x
      value: 0.722
      objectReference: {fileID: 0}
    - target: {fileID: 4636420904204468, guid: 267cd6dd2057b5d4981eead52aae47a3, type: 3}
      propertyPath: m_LocalPosition.z
      value: -0.048
      objectReference: {fileID: 0}
    - target: {fileID: 4141571881889442, guid: 267cd6dd2057b5d4981eead52aae47a3, type: 3}
      propertyPath: m_LocalPosition.x
      value: 0.549
      objectReference: {fileID: 0}
    - target: {fileID: 4141571881889442, guid: 267cd6dd2057b5d4981eead52aae47a3, type: 3}
      propertyPath: m_LocalPosition.z
      value: 0.533
      objectReference: {fileID: 0}
    - target: {fileID: 4430791564997442, guid: 267cd6dd2057b5d4981eead52aae47a3, type: 3}
      propertyPath: m_LocalPosition.x
      value: -0.684
      objectReference: {fileID: 0}
    - target: {fileID: 4430791564997442, guid: 267cd6dd2057b5d4981eead52aae47a3, type: 3}
      propertyPath: m_LocalPosition.z
      value: -0.057
      objectReference: {fileID: 0}
    - target: {fileID: 1209686514864720, guid: 267cd6dd2057b5d4981eead52aae47a3, type: 3}
      propertyPath: m_IsActive
      value: 1
      objectReference: {fileID: 0}
    - target: {fileID: 1560897843649616, guid: 267cd6dd2057b5d4981eead52aae47a3, type: 3}
      propertyPath: m_IsActive
      value: 1
      objectReference: {fileID: 0}
    - target: {fileID: 1251287738056124, guid: 267cd6dd2057b5d4981eead52aae47a3, type: 3}
      propertyPath: m_IsActive
      value: 1
      objectReference: {fileID: 0}
    - target: {fileID: 1991223875756078, guid: 267cd6dd2057b5d4981eead52aae47a3, type: 3}
      propertyPath: m_IsActive
      value: 1
      objectReference: {fileID: 0}
    - target: {fileID: 1747462855543782, guid: 267cd6dd2057b5d4981eead52aae47a3, type: 3}
      propertyPath: m_IsActive
      value: 1
      objectReference: {fileID: 0}
    - target: {fileID: 120612593668526280, guid: 267cd6dd2057b5d4981eead52aae47a3,
        type: 3}
      propertyPath: m_Parameters.generateLightingData
      value: 1
      objectReference: {fileID: 0}
    - target: {fileID: 120074577009550412, guid: 267cd6dd2057b5d4981eead52aae47a3,
        type: 3}
      propertyPath: m_Parameters.generateLightingData
      value: 1
      objectReference: {fileID: 0}
    - target: {fileID: 120023539172781914, guid: 267cd6dd2057b5d4981eead52aae47a3,
        type: 3}
      propertyPath: m_Parameters.generateLightingData
      value: 1
      objectReference: {fileID: 0}
    - target: {fileID: 120652662322844530, guid: 267cd6dd2057b5d4981eead52aae47a3,
        type: 3}
      propertyPath: m_Parameters.generateLightingData
      value: 1
      objectReference: {fileID: 0}
    - target: {fileID: 120786161928626850, guid: 267cd6dd2057b5d4981eead52aae47a3,
        type: 3}
      propertyPath: m_Parameters.generateLightingData
      value: 1
      objectReference: {fileID: 0}
    - target: {fileID: 120571577893378736, guid: 267cd6dd2057b5d4981eead52aae47a3,
        type: 3}
      propertyPath: m_Parameters.generateLightingData
      value: 1
      objectReference: {fileID: 0}
    - target: {fileID: 4267151485228886, guid: 267cd6dd2057b5d4981eead52aae47a3, type: 3}
      propertyPath: m_LocalPosition.y
      value: 0.25
      objectReference: {fileID: 0}
    - target: {fileID: 114429718383200408, guid: 267cd6dd2057b5d4981eead52aae47a3,
        type: 3}
      propertyPath: body
      value: 
      objectReference: {fileID: 852713779}
    - target: {fileID: 114429718383200408, guid: 267cd6dd2057b5d4981eead52aae47a3,
        type: 3}
      propertyPath: debug
      value: 1
      objectReference: {fileID: 0}
    m_RemovedComponents: []
  m_SourcePrefab: {fileID: 100100000, guid: 267cd6dd2057b5d4981eead52aae47a3, type: 3}
--- !u!1001 &1650705493
PrefabInstance:
  m_ObjectHideFlags: 0
  serializedVersion: 2
  m_Modification:
    m_TransformParent: {fileID: 0}
    m_Modifications:
    - target: {fileID: 4762493172078236, guid: 9aed7a2f1133f1743a122a4b166373ff, type: 3}
      propertyPath: m_LocalPosition.x
      value: 0
      objectReference: {fileID: 0}
    - target: {fileID: 4762493172078236, guid: 9aed7a2f1133f1743a122a4b166373ff, type: 3}
      propertyPath: m_LocalPosition.y
      value: 0
      objectReference: {fileID: 0}
    - target: {fileID: 4762493172078236, guid: 9aed7a2f1133f1743a122a4b166373ff, type: 3}
      propertyPath: m_LocalPosition.z
      value: 0
      objectReference: {fileID: 0}
    - target: {fileID: 4762493172078236, guid: 9aed7a2f1133f1743a122a4b166373ff, type: 3}
      propertyPath: m_LocalRotation.x
      value: 0
      objectReference: {fileID: 0}
    - target: {fileID: 4762493172078236, guid: 9aed7a2f1133f1743a122a4b166373ff, type: 3}
      propertyPath: m_LocalRotation.y
      value: 0
      objectReference: {fileID: 0}
    - target: {fileID: 4762493172078236, guid: 9aed7a2f1133f1743a122a4b166373ff, type: 3}
      propertyPath: m_LocalRotation.z
      value: 0
      objectReference: {fileID: 0}
    - target: {fileID: 4762493172078236, guid: 9aed7a2f1133f1743a122a4b166373ff, type: 3}
      propertyPath: m_LocalRotation.w
      value: 1
      objectReference: {fileID: 0}
    - target: {fileID: 4762493172078236, guid: 9aed7a2f1133f1743a122a4b166373ff, type: 3}
      propertyPath: m_RootOrder
      value: 1
      objectReference: {fileID: 0}
    - target: {fileID: 114976005422299510, guid: 9aed7a2f1133f1743a122a4b166373ff,
        type: 3}
      propertyPath: chaseObj
      value: 
      objectReference: {fileID: 0}
    - target: {fileID: 114835683423198636, guid: 9aed7a2f1133f1743a122a4b166373ff,
        type: 3}
      propertyPath: chaseObj
      value: 
      objectReference: {fileID: 0}
    - target: {fileID: 114188182184911570, guid: 9aed7a2f1133f1743a122a4b166373ff,
        type: 3}
      propertyPath: crawlSpeed
      value: 0.1
      objectReference: {fileID: 0}
    - target: {fileID: 114188182184911570, guid: 9aed7a2f1133f1743a122a4b166373ff,
        type: 3}
      propertyPath: deviationSpeed
      value: 0.1
      objectReference: {fileID: 0}
    - target: {fileID: 114188182184911570, guid: 9aed7a2f1133f1743a122a4b166373ff,
        type: 3}
      propertyPath: obj
      value: 
      objectReference: {fileID: 1294577061654568, guid: 267cd6dd2057b5d4981eead52aae47a3,
        type: 3}
    - target: {fileID: 114188182184911570, guid: 9aed7a2f1133f1743a122a4b166373ff,
        type: 3}
      propertyPath: count
      value: 0
      objectReference: {fileID: 0}
    - target: {fileID: 114188182184911570, guid: 9aed7a2f1133f1743a122a4b166373ff,
        type: 3}
      propertyPath: chaseObj
      value: 
      objectReference: {fileID: 0}
    - target: {fileID: 4436339857985372, guid: 9aed7a2f1133f1743a122a4b166373ff, type: 3}
      propertyPath: m_LocalScale.x
      value: 1
      objectReference: {fileID: 0}
    - target: {fileID: 4436339857985372, guid: 9aed7a2f1133f1743a122a4b166373ff, type: 3}
      propertyPath: m_LocalScale.y
      value: 1
      objectReference: {fileID: 0}
    - target: {fileID: 4436339857985372, guid: 9aed7a2f1133f1743a122a4b166373ff, type: 3}
      propertyPath: m_LocalScale.z
      value: 1
      objectReference: {fileID: 0}
    - target: {fileID: 1053175261632882, guid: 9aed7a2f1133f1743a122a4b166373ff, type: 3}
      propertyPath: m_IsActive
      value: 0
      objectReference: {fileID: 0}
    - target: {fileID: 1452533218076914, guid: 9aed7a2f1133f1743a122a4b166373ff, type: 3}
      propertyPath: m_IsActive
      value: 0
      objectReference: {fileID: 0}
    - target: {fileID: 23815300577896474, guid: 9aed7a2f1133f1743a122a4b166373ff,
        type: 3}
      propertyPath: m_Materials.Array.data[0]
      value: 
      objectReference: {fileID: 2100000, guid: 23358f17781271643b095b36500c89c5, type: 2}
    m_RemovedComponents: []
  m_SourcePrefab: {fileID: 100100000, guid: 9aed7a2f1133f1743a122a4b166373ff, type: 3}
