%YAML 1.1
%TAG !u! tag:unity3d.com,2011:
--- !u!114 &11400000
MonoBehaviour:
  m_ObjectHideFlags: 0
  m_CorrespondingSourceObject: {fileID: 0}
  m_PrefabInstance: {fileID: 0}
  m_PrefabAsset: {fileID: 0}
  m_GameObject: {fileID: 0}
  m_Enabled: 1
  m_EditorHideFlags: 0
  m_Script: {fileID: 11500000, guid: baa3485173ea340f684ba7f357a77f79, type: 3}
  m_Name: burger
  m_EditorClassIdentifier: 
  input: {fileID: 4300016, guid: d4e60ae6b3cebb24490a4d6fd6e5f266, type: 3}
  scale: {x: 1, y: 1, z: 1}
  initialized: 0
  vertexCount: -1
  heFaces: []
  heHalfEdges: []
  heVertices: []
  heOrientations: []
  normals: []
  tangents: []
  visualMap: 
  meshInfo:
    volume: 0
    area: 0
    borderEdgeCount: 0
    closed: 0
    nonManifold: 0
